-- Merging decision tree log ---
manifest
ADDED from /Users/edisonsaezecheverria/Desktop/AUTENTIA.FILES/ANDROID.PROJECTS/autentiamovil/scanlibrary/src/main/AndroidManifest.xml:2:1-31:12
INJECTED from /Users/edisonsaezecheverria/Desktop/AUTENTIA.FILES/ANDROID.PROJECTS/autentiamovil/scanlibrary/src/main/AndroidManifest.xml:2:1-31:12
INJECTED from /Users/edisonsaezecheverria/Desktop/AUTENTIA.FILES/ANDROID.PROJECTS/autentiamovil/scanlibrary/src/main/AndroidManifest.xml:2:1-31:12
INJECTED from /Users/edisonsaezecheverria/Desktop/AUTENTIA.FILES/ANDROID.PROJECTS/autentiamovil/scanlibrary/src/main/AndroidManifest.xml:2:1-31:12
INJECTED from /Users/edisonsaezecheverria/Desktop/AUTENTIA.FILES/ANDROID.PROJECTS/autentiamovil/scanlibrary/src/main/AndroidManifest.xml:2:1-31:12
INJECTED from /Users/edisonsaezecheverria/Desktop/AUTENTIA.FILES/ANDROID.PROJECTS/autentiamovil/scanlibrary/src/main/AndroidManifest.xml:2:1-31:12
INJECTED from /Users/edisonsaezecheverria/Desktop/AUTENTIA.FILES/ANDROID.PROJECTS/autentiamovil/scanlibrary/src/main/AndroidManifest.xml:2:1-31:12
	package
		ADDED from /Users/edisonsaezecheverria/Desktop/AUTENTIA.FILES/ANDROID.PROJECTS/autentiamovil/scanlibrary/src/main/AndroidManifest.xml:3:5-30
		INJECTED from /Users/edisonsaezecheverria/Desktop/AUTENTIA.FILES/ANDROID.PROJECTS/autentiamovil/scanlibrary/src/main/AndroidManifest.xml
		INJECTED from /Users/edisonsaezecheverria/Desktop/AUTENTIA.FILES/ANDROID.PROJECTS/autentiamovil/scanlibrary/src/main/AndroidManifest.xml
	android:versionName
		INJECTED from /Users/edisonsaezecheverria/Desktop/AUTENTIA.FILES/ANDROID.PROJECTS/autentiamovil/scanlibrary/src/main/AndroidManifest.xml
		ADDED from /Users/edisonsaezecheverria/Desktop/AUTENTIA.FILES/ANDROID.PROJECTS/autentiamovil/scanlibrary/src/main/AndroidManifest.xml:2:1-31:12
		INJECTED from /Users/edisonsaezecheverria/Desktop/AUTENTIA.FILES/ANDROID.PROJECTS/autentiamovil/scanlibrary/src/main/AndroidManifest.xml
	android:versionCode
		INJECTED from /Users/edisonsaezecheverria/Desktop/AUTENTIA.FILES/ANDROID.PROJECTS/autentiamovil/scanlibrary/src/main/AndroidManifest.xml
		ADDED from /Users/edisonsaezecheverria/Desktop/AUTENTIA.FILES/ANDROID.PROJECTS/autentiamovil/scanlibrary/src/main/AndroidManifest.xml:2:1-31:12
		INJECTED from /Users/edisonsaezecheverria/Desktop/AUTENTIA.FILES/ANDROID.PROJECTS/autentiamovil/scanlibrary/src/main/AndroidManifest.xml
	xmlns:android
		ADDED from /Users/edisonsaezecheverria/Desktop/AUTENTIA.FILES/ANDROID.PROJECTS/autentiamovil/scanlibrary/src/main/AndroidManifest.xml:2:11-69
application
ADDED from /Users/edisonsaezecheverria/Desktop/AUTENTIA.FILES/ANDROID.PROJECTS/autentiamovil/scanlibrary/src/main/AndroidManifest.xml:5:5-29:19
	android:hardwareAccelerated
		ADDED from /Users/edisonsaezecheverria/Desktop/AUTENTIA.FILES/ANDROID.PROJECTS/autentiamovil/scanlibrary/src/main/AndroidManifest.xml:7:9-43
	android:largeHeap
		ADDED from /Users/edisonsaezecheverria/Desktop/AUTENTIA.FILES/ANDROID.PROJECTS/autentiamovil/scanlibrary/src/main/AndroidManifest.xml:8:9-33
	android:allowBackup
		ADDED from /Users/edisonsaezecheverria/Desktop/AUTENTIA.FILES/ANDROID.PROJECTS/autentiamovil/scanlibrary/src/main/AndroidManifest.xml:6:9-35
activity#com.scanlibrary.ScanActivity
ADDED from /Users/edisonsaezecheverria/Desktop/AUTENTIA.FILES/ANDROID.PROJECTS/autentiamovil/scanlibrary/src/main/AndroidManifest.xml:9:9-18:20
	android:label
		ADDED from /Users/edisonsaezecheverria/Desktop/AUTENTIA.FILES/ANDROID.PROJECTS/autentiamovil/scanlibrary/src/main/AndroidManifest.xml:12:13-45
	android:configChanges
		ADDED from /Users/edisonsaezecheverria/Desktop/AUTENTIA.FILES/ANDROID.PROJECTS/autentiamovil/scanlibrary/src/main/AndroidManifest.xml:11:13-59
	android:name
		ADDED from /Users/edisonsaezecheverria/Desktop/AUTENTIA.FILES/ANDROID.PROJECTS/autentiamovil/scanlibrary/src/main/AndroidManifest.xml:10:13-41
intent-filter#action:name:cl.autentia.operacion.SCAN_DOCUMENT+category:name:android.intent.category.DEFAULT
ADDED from /Users/edisonsaezecheverria/Desktop/AUTENTIA.FILES/ANDROID.PROJECTS/autentiamovil/scanlibrary/src/main/AndroidManifest.xml:13:13-17:29
action#cl.autentia.operacion.SCAN_DOCUMENT
ADDED from /Users/edisonsaezecheverria/Desktop/AUTENTIA.FILES/ANDROID.PROJECTS/autentiamovil/scanlibrary/src/main/AndroidManifest.xml:14:17-78
	android:name
		ADDED from /Users/edisonsaezecheverria/Desktop/AUTENTIA.FILES/ANDROID.PROJECTS/autentiamovil/scanlibrary/src/main/AndroidManifest.xml:14:25-75
category#android.intent.category.DEFAULT
ADDED from /Users/edisonsaezecheverria/Desktop/AUTENTIA.FILES/ANDROID.PROJECTS/autentiamovil/scanlibrary/src/main/AndroidManifest.xml:16:17-76
	android:name
		ADDED from /Users/edisonsaezecheverria/Desktop/AUTENTIA.FILES/ANDROID.PROJECTS/autentiamovil/scanlibrary/src/main/AndroidManifest.xml:16:27-73
uses-sdk
INJECTED from /Users/edisonsaezecheverria/Desktop/AUTENTIA.FILES/ANDROID.PROJECTS/autentiamovil/scanlibrary/src/main/AndroidManifest.xml reason: use-sdk injection requested
INJECTED from /Users/edisonsaezecheverria/Desktop/AUTENTIA.FILES/ANDROID.PROJECTS/autentiamovil/scanlibrary/src/main/AndroidManifest.xml
INJECTED from /Users/edisonsaezecheverria/Desktop/AUTENTIA.FILES/ANDROID.PROJECTS/autentiamovil/scanlibrary/src/main/AndroidManifest.xml
INJECTED from /Users/edisonsaezecheverria/Desktop/AUTENTIA.FILES/ANDROID.PROJECTS/autentiamovil/scanlibrary/src/main/AndroidManifest.xml
INJECTED from /Users/edisonsaezecheverria/Desktop/AUTENTIA.FILES/ANDROID.PROJECTS/autentiamovil/scanlibrary/src/main/AndroidManifest.xml
	android:targetSdkVersion
		INJECTED from /Users/edisonsaezecheverria/Desktop/AUTENTIA.FILES/ANDROID.PROJECTS/autentiamovil/scanlibrary/src/main/AndroidManifest.xml
		ADDED from /Users/edisonsaezecheverria/Desktop/AUTENTIA.FILES/ANDROID.PROJECTS/autentiamovil/scanlibrary/src/main/AndroidManifest.xml
		INJECTED from /Users/edisonsaezecheverria/Desktop/AUTENTIA.FILES/ANDROID.PROJECTS/autentiamovil/scanlibrary/src/main/AndroidManifest.xml
	android:minSdkVersion
		INJECTED from /Users/edisonsaezecheverria/Desktop/AUTENTIA.FILES/ANDROID.PROJECTS/autentiamovil/scanlibrary/src/main/AndroidManifest.xml
		ADDED from /Users/edisonsaezecheverria/Desktop/AUTENTIA.FILES/ANDROID.PROJECTS/autentiamovil/scanlibrary/src/main/AndroidManifest.xml
		INJECTED from /Users/edisonsaezecheverria/Desktop/AUTENTIA.FILES/ANDROID.PROJECTS/autentiamovil/scanlibrary/src/main/AndroidManifest.xml
